Code used in Class 03
…
quicksur_raw <- 
  read_csv("data/quick_survey_2024.csv", show_col_types = FALSE) |>
  janitor::clean_names()

1 Initial Cleaning

1.1 What does the quicksur_raw tibble include?

dim(quicksur_raw)

[1] 603  23

quicksur_raw

# A tibble: 603 × 23
   student glasses english statsofar love_htcm smoke h_left h_right handedness
     <dbl> <chr>   <chr>       <dbl>     <dbl> <dbl>  <dbl>   <dbl>      <dbl>
 1  202401 n       y               5       175     1     16       1      -0.88
 2  202402 y       y               3       180     1      3      10       0.54
 3  202403 y       y               2       183     1      0      10       1   
 4  202404 y       n               7       188     1      8      10       0.11
 5  202405 n       y               5       183     1      1      15       0.88
 6  202406 y       y               3       185     1      1      14       0.87
 7  202407 n       y               4       183     1      2      15       0.76
 8  202408 n       y               7       188     1      6      14       0.4 
 9  202409 y       n               7       188     1      8      10       0.11
10  202410 n       y               5       191     1      1      12       0.85
# ℹ 593 more rows
# ℹ 14 more variables: statfuture <dbl>, haircut <dbl>, lecture <dbl>,
#   alone <dbl>, height_in <dbl>, hand_span <dbl>, favcolor <chr>,
#   lastsleep <dbl>, pulse <dbl>, year <dbl>, lovetrueage <dbl>,
#   lovetrueht <dbl>, sex <chr>, ageguess <dbl>
…
haircut: price of student’s last haircut (in $)

3.2 Select our variables

qsdat <- quicksur_raw |>
    select(student, year, english, smoke, 
           pulse, height_in, haircut)

dim(qsdat)

[1] 603   7

qsdat

# A tibble: 603 × 7
   student  year english smoke pulse height_in haircut
     <dbl> <dbl> <chr>   <dbl> <dbl>     <dbl>   <dbl>
 1  202401  2024 y           1    75      63        50
 2  202402  2024 y           1    74      69        30
 3  202403  2024 y           1    90      66        80
 4  202404  2024 n           1    70      68.5      10
 5  202405  2024 y           1    80      62        45
 6  202406  2024 y           1    99      64        45
 7  202407  2024 y           1    70      76       130
 8  202408  2024 y           1    72      72        60
 9  202409  2024 n           1    64      67        40
10  202410  2024 y           1    76      60        37
# ℹ 593 more rows
…
